{
  "href" : "https://api.spotify.com/v1/artists/7mAqCk75DUBWgcC0sqhzwX/albums?offset=0&limit=10&include_groups=single,appears_on&market=FR",
  "items" : [ {
    "album_group" : "single",
    "album_type" : "single",
    "artists" : [ {
      "external_urls" : {
        "spotify" : "https://open.spotify.com/artist/7mAqCk75DUBWgcC0sqhzwX"
      },
      "href" : "https://api.spotify.com/v1/artists/7mAqCk75DUBWgcC0sqhzwX",
      "id" : "7mAqCk75DUBWgcC0sqhzwX",
      "name" : "John 5",
      "type" : "artist",
      "uri" : "spotify:artist:7mAqCk75DUBWgcC0sqhzwX"
    }, {
      "external_urls" : {
        "spotify" : "https://open.spotify.com/artist/0PYfcypt81Sk6H1wguQGxF"
      },
      "href" : "https://api.spotify.com/v1/artists/0PYfcypt81Sk6H1wguQGxF",
      "id" : "0PYfcypt81Sk6H1wguQGxF",
      "name" : "The Creatures",
      "type" : "artist",
      "uri" : "spotify:artist:0PYfcypt81Sk6H1wguQGxF"
    } ],
    "available_markets" : [ "AD", "AR", "AT", "AU", "BE", "BG", "BO", "BR", "CA", "CH", "CL", "CO", "CR", "CY", "CZ", "DE", "DK", "DO", "EC", "EE", "ES", "FI", "FR", "GB", "GR", "GT", "HK", "HN", "HU", "ID", "IE", "IL", "IS", "IT", "JP", "LI", "LT", "LU", "LV", "MC", "MT", "MX", "MY", "NI", "NL", "NO", "NZ", "PA", "PE", "PH", "PL", "PT", "PY", "RO", "SE", "SG", "SK", "SV", "TH", "TR", "TW", "US", "UY", "VN", "ZA" ],
    "external_urls" : {
      "spotify" : "https://open.spotify.com/album/22zMGCKGErdAMz9FZ8FYwH"
    },
    "href" : "https://api.spotify.com/v1/albums/22zMGCKGErdAMz9FZ8FYwH",
    "id" : "22zMGCKGErdAMz9FZ8FYwH",
    "images" : [ {
      "height" : 640,
      "url" : "https://i.scdn.co/image/7514b3e440f2d753dc817fa3fc2dde47449a3e7f",
      "width" : 640
    }, {
      "height" : 300,
      "url" : "https://i.scdn.co/image/086c6b76b9035c14fb2b68e6bad54be7c9462171",
      "width" : 300
    }, {
      "height" : 64,
      "url" : "https://i.scdn.co/image/a2366427aa40b404c4b6264b129356b61c590ba9",
      "width" : 64
    } ],
    "name" : "Enter Sandman",
    "release_date" : "2017-10-12",
    "release_date_precision" : "day",
    "type" : "album",
    "uri" : "spotify:album:22zMGCKGErdAMz9FZ8FYwH"
  }, {
    "album_group" : "single",
    "album_type" : "single",
    "artists" : [ {
      "external_urls" : {
        "spotify" : "https://open.spotify.com/artist/7mAqCk75DUBWgcC0sqhzwX"
      },
      "href" : "https://api.spotify.com/v1/artists/7mAqCk75DUBWgcC0sqhzwX",
      "id" : "7mAqCk75DUBWgcC0sqhzwX",
      "name" : "John 5",
      "type" : "artist",
      "uri" : "spotify:artist:7mAqCk75DUBWgcC0sqhzwX"
    } ],
    "available_markets" : [ "AD", "AR", "AT", "AU", "BE", "BG", "BO", "BR", "CA", "CH", "CL", "CO", "CR", "CY", "CZ", "DE", "DK", "DO", "EC", "EE", "ES", "FI", "FR", "GB", "GR", "GT", "HK", "HN", "HU", "ID", "IE", "IL", "IS", "IT", "JP", "LI", "LT", "LU", "LV", "MC", "MT", "MX", "MY", "NI", "NL", "NO", "NZ", "PA", "PE", "PH", "PL", "PT", "PY", "RO", "SE", "SG", "SK", "SV", "TH", "TR", "TW", "US", "UY", "VN", "ZA" ],
    "external_urls" : {
      "spotify" : "https://open.spotify.com/album/0Ck5oy5BppXVkchnXUw0TM"
    },
    "href" : "https://api.spotify.com/v1/albums/0Ck5oy5BppXVkchnXUw0TM",
    "id" : "0Ck5oy5BppXVkchnXUw0TM",
    "images" : [ {
      "height" : 640,
      "url" : "https://i.scdn.co/image/db6894a57ecff00321fd1dc81cbd8d2f98a7062b",
      "width" : 640
    }, {
      "height" : 300,
      "url" : "https://i.scdn.co/image/679d9a746f668f190cf9a6720629fee4e2ac3e51",
      "width" : 300
    }, {
      "height" : 64,
      "url" : "https://i.scdn.co/image/298d6faed9be4f2f359ab86016004c20bcc17f7f",
      "width" : 64
    } ],
    "name" : "This Is My Rifle",
    "release_date" : "2014-06-10",
    "release_date_precision" : "day",
    "type" : "album",
    "uri" : "spotify:album:0Ck5oy5BppXVkchnXUw0TM"
  }, {
    "album_group" : "single",
    "album_type" : "single",
    "artists" : [ {
      "external_urls" : {
        "spotify" : "https://open.spotify.com/artist/7mAqCk75DUBWgcC0sqhzwX"
      },
      "href" : "https://api.spotify.com/v1/artists/7mAqCk75DUBWgcC0sqhzwX",
      "id" : "7mAqCk75DUBWgcC0sqhzwX",
      "name" : "John 5",
      "type" : "artist",
      "uri" : "spotify:artist:7mAqCk75DUBWgcC0sqhzwX"
    } ],
    "available_markets" : [ "AD", "AR", "AT", "AU", "BE", "BG", "BO", "BR", "CA", "CH", "CL", "CO", "CR", "CY", "CZ", "DE", "DK", "DO", "EC", "EE", "ES", "FI", "FR", "GB", "GR", "GT", "HK", "HN", "HU", "ID", "IE", "IL", "IS", "IT", "JP", "LI", "LT", "LU", "LV", "MC", "MT", "MX", "MY", "NI", "NL", "NO", "NZ", "PA", "PE", "PH", "PL", "PT", "PY", "RO", "SE", "SG", "SK", "SV", "TH", "TR", "TW", "US", "UY", "VN", "ZA" ],
    "external_urls" : {
      "spotify" : "https://open.spotify.com/album/3NJtDCEih6U9IDZf5XoFwA"
    },
    "href" : "https://api.spotify.com/v1/albums/3NJtDCEih6U9IDZf5XoFwA",
    "id" : "3NJtDCEih6U9IDZf5XoFwA",
    "images" : [ {
      "height" : 640,
      "url" : "https://i.scdn.co/image/c1e4a3e7923d3ec05dca173553971d113291d485",
      "width" : 640
    }, {
      "height" : 300,
      "url" : "https://i.scdn.co/image/6b709a097ac7a6c257dcbe212343b08f97537190",
      "width" : 300
    }, {
      "height" : 64,
      "url" : "https://i.scdn.co/image/16e158aa2bfd747f5c79aa969a8f5bba643f8d03",
      "width" : 64
    } ],
    "name" : "The Castle - Single",
    "release_date" : "2011-12-20",
    "release_date_precision" : "day",
    "type" : "album",
    "uri" : "spotify:album:3NJtDCEih6U9IDZf5XoFwA"
  }, {
    "album_group" : "single",
    "album_type" : "single",
    "artists" : [ {
      "external_urls" : {
        "spotify" : "https://open.spotify.com/artist/7mAqCk75DUBWgcC0sqhzwX"
      },
      "href" : "https://api.spotify.com/v1/artists/7mAqCk75DUBWgcC0sqhzwX",
      "id" : "7mAqCk75DUBWgcC0sqhzwX",
      "name" : "John 5",
      "type" : "artist",
      "uri" : "spotify:artist:7mAqCk75DUBWgcC0sqhzwX"
    } ],
    "available_markets" : [ "AD", "AR", "AT", "AU", "BE", "BG", "BO", "BR", "CA", "CH", "CL", "CO", "CR", "CY", "CZ", "DE", "DK", "DO", "EC", "EE", "ES", "FI", "FR", "GB", "GR", "GT", "HK", "HN", "HU", "ID", "IE", "IL", "IS", "IT", "JP", "LI", "LT", "LU", "LV", "MC", "MT", "MX", "MY", "NI", "NL", "NO", "NZ", "PA", "PE", "PH", "PL", "PT", "PY", "RO", "SE", "SG", "SK", "SV", "TH", "TR", "TW", "US", "UY", "VN", "ZA" ],
    "external_urls" : {
      "spotify" : "https://open.spotify.com/album/4AOarFkkb8PJH5Lpu5grK9"
    },
    "href" : "https://api.spotify.com/v1/albums/4AOarFkkb8PJH5Lpu5grK9",
    "id" : "4AOarFkkb8PJH5Lpu5grK9",
    "images" : [ {
      "height" : 640,
      "url" : "https://i.scdn.co/image/da3d6056fefd817c4af7c8f7db3e4e44169dd4e2",
      "width" : 640
    }, {
      "height" : 300,
      "url" : "https://i.scdn.co/image/23ab64ec703542691986eb4293e203f8ec306933",
      "width" : 300
    }, {
      "height" : 64,
      "url" : "https://i.scdn.co/image/56e9cf437094e755833d41cd71ab3ed862319452",
      "width" : 64
    } ],
    "name" : "Noche Acosador - Single",
    "release_date" : "2011-11-01",
    "release_date_precision" : "day",
    "type" : "album",
    "uri" : "spotify:album:4AOarFkkb8PJH5Lpu5grK9"
  }, {
    "album_group" : "single",
    "album_type" : "single",
    "artists" : [ {
      "external_urls" : {
        "spotify" : "https://open.spotify.com/artist/7mAqCk75DUBWgcC0sqhzwX"
      },
      "href" : "https://api.spotify.com/v1/artists/7mAqCk75DUBWgcC0sqhzwX",
      "id" : "7mAqCk75DUBWgcC0sqhzwX",
      "name" : "John 5",
      "type" : "artist",
      "uri" : "spotify:artist:7mAqCk75DUBWgcC0sqhzwX"
    } ],
    "available_markets" : [ "AD", "AR", "AT", "AU", "BE", "BG", "BO", "BR", "CA", "CH", "CL", "CO", "CR", "CY", "CZ", "DE", "DK", "DO", "EC", "EE", "ES", "FI", "FR", "GB", "GR", "GT", "HK", "HN", "HU", "ID", "IE", "IL", "IS", "IT", "JP", "LI", "LT", "LU", "LV", "MC", "MT", "MX", "MY", "NI", "NL", "NO", "NZ", "PA", "PE", "PH", "PL", "PT", "PY", "RO", "SE", "SG", "SK", "SV", "TH", "TR", "TW", "US", "UY", "VN", "ZA" ],
    "external_urls" : {
      "spotify" : "https://open.spotify.com/album/2jmjlktRUwAVP7nxyWEnQu"
    },
    "href" : "https://api.spotify.com/v1/albums/2jmjlktRUwAVP7nxyWEnQu",
    "id" : "2jmjlktRUwAVP7nxyWEnQu",
    "images" : [ {
      "height" : 640,
      "url" : "https://i.scdn.co/image/3919f687f6f10b94e33460f7f175e1a43328a659",
      "width" : 640
    }, {
      "height" : 300,
      "url" : "https://i.scdn.co/image/a82ae317c612cc4e4bf0cf0bf49360811044cef4",
      "width" : 300
    }, {
      "height" : 64,
      "url" : "https://i.scdn.co/image/a93efb01560f141007df7b53f902e86fb114583e",
      "width" : 64
    } ],
    "name" : "Welcome To Violence - Single",
    "release_date" : "2011-09-27",
    "release_date_precision" : "day",
    "type" : "album",
    "uri" : "spotify:album:2jmjlktRUwAVP7nxyWEnQu"
  }, {
    "album_group" : "single",
    "album_type" : "single",
    "artists" : [ {
      "external_urls" : {
        "spotify" : "https://open.spotify.com/artist/7mAqCk75DUBWgcC0sqhzwX"
      },
      "href" : "https://api.spotify.com/v1/artists/7mAqCk75DUBWgcC0sqhzwX",
      "id" : "7mAqCk75DUBWgcC0sqhzwX",
      "name" : "John 5",
      "type" : "artist",
      "uri" : "spotify:artist:7mAqCk75DUBWgcC0sqhzwX"
    } ],
    "available_markets" : [ "AD", "AR", "AT", "AU", "BE", "BG", "BO", "BR", "CA", "CH", "CL", "CO", "CR", "CY", "CZ", "DE", "DK", "DO", "EC", "EE", "ES", "FI", "FR", "GB", "GR", "GT", "HK", "HN", "HU", "ID", "IE", "IL", "IS", "IT", "JP", "LI", "LT", "LU", "LV", "MC", "MT", "MX", "MY", "NI", "NL", "NO", "NZ", "PA", "PE", "PH", "PL", "PT", "PY", "RO", "SE", "SG", "SK", "SV", "TH", "TR", "TW", "US", "UY", "VN", "ZA" ],
    "external_urls" : {
      "spotify" : "https://open.spotify.com/album/1s1MCR2SF3kHUoa1K22S1Q"
    },
    "href" : "https://api.spotify.com/v1/albums/1s1MCR2SF3kHUoa1K22S1Q",
    "id" : "1s1MCR2SF3kHUoa1K22S1Q",
    "images" : [ {
      "height" : 640,
      "url" : "https://i.scdn.co/image/7e88a689b84429f46bdfe1b3b23d5ce74412531e",
      "width" : 640
    }, {
      "height" : 300,
      "url" : "https://i.scdn.co/image/8d3c1a62fb2df5db000b76f6a5ae2c8d775967b5",
      "width" : 300
    }, {
      "height" : 64,
      "url" : "https://i.scdn.co/image/88e09e37c0d867bf42713aa5e95923ff8223bbcf",
      "width" : 64
    } ],
    "name" : "Beat It - Single",
    "release_date" : "2011-08-22",
    "release_date_precision" : "day",
    "type" : "album",
    "uri" : "spotify:album:1s1MCR2SF3kHUoa1K22S1Q"
  }, {
    "album_group" : "appears_on",
    "album_type" : "album",
    "artists" : [ {
      "external_urls" : {
        "spotify" : "https://open.spotify.com/artist/62olK5zZHSgFUXGDykgBL8"
      },
      "href" : "https://api.spotify.com/v1/artists/62olK5zZHSgFUXGDykgBL8",
      "id" : "62olK5zZHSgFUXGDykgBL8",
      "name" : "Ace Frehley",
      "type" : "artist",
      "uri" : "spotify:artist:62olK5zZHSgFUXGDykgBL8"
    } ],
    "available_markets" : [ "AD", "AR", "AT", "AU", "BE", "BG", "BO", "BR", "CA", "CH", "CL", "CO", "CR", "CY", "CZ", "DE", "DK", "DO", "EC", "EE", "ES", "FI", "FR", "GB", "GR", "GT", "HK", "HN", "HU", "ID", "IE", "IL", "IS", "IT", "JP", "LI", "LT", "LU", "LV", "MC", "MT", "MX", "MY", "NI", "NL", "NO", "NZ", "PA", "PE", "PH", "PL", "PT", "PY", "RO", "SE", "SG", "SK", "SV", "TH", "TR", "TW", "US", "UY", "VN", "ZA" ],
    "external_urls" : {
      "spotify" : "https://open.spotify.com/album/3lBdpF9l8xSAHJ7w5wJyS9"
    },
    "href" : "https://api.spotify.com/v1/albums/3lBdpF9l8xSAHJ7w5wJyS9",
    "id" : "3lBdpF9l8xSAHJ7w5wJyS9",
    "images" : [ {
      "height" : 640,
      "url" : "https://i.scdn.co/image/78f4e5225a82bfa0f171e5b1c95bce797f4204bf",
      "width" : 640
    }, {
      "height" : 300,
      "url" : "https://i.scdn.co/image/ce32f6fadce8375bbe0426966f38c2750c3b1990",
      "width" : 300
    }, {
      "height" : 64,
      "url" : "https://i.scdn.co/image/3b774aa41a0e9e5a68ef7897e26db119b8529aca",
      "width" : 64
    } ],
    "name" : "Origins Vol.1",
    "release_date" : "2016-04-15",
    "release_date_precision" : "day",
    "type" : "album",
    "uri" : "spotify:album:3lBdpF9l8xSAHJ7w5wJyS9"
  }, {
    "album_group" : "appears_on",
    "album_type" : "compilation",
    "artists" : [ {
      "external_urls" : {
        "spotify" : "https://open.spotify.com/artist/0LyfQWJT6nXafLPZqxe9Of"
      },
      "href" : "https://api.spotify.com/v1/artists/0LyfQWJT6nXafLPZqxe9Of",
      "id" : "0LyfQWJT6nXafLPZqxe9Of",
      "name" : "Various Artists",
      "type" : "artist",
      "uri" : "spotify:artist:0LyfQWJT6nXafLPZqxe9Of"
    } ],
    "available_markets" : [ "AD", "AR", "AT", "AU", "BE", "BG", "BO", "BR", "CA", "CH", "CL", "CO", "CR", "CY", "CZ", "DE", "DK", "DO", "EC", "EE", "ES", "FI", "FR", "GB", "GR", "GT", "HK", "HN", "HU", "ID", "IE", "IL", "IS", "IT", "JP", "LI", "LT", "LU", "LV", "MC", "MT", "MX", "MY", "NI", "NL", "NO", "NZ", "PA", "PE", "PH", "PL", "PT", "PY", "RO", "SE", "SG", "SK", "SV", "TH", "TR", "TW", "US", "UY", "VN", "ZA" ],
    "external_urls" : {
      "spotify" : "https://open.spotify.com/album/0PaNSNyS5HIx2nY1unC7Hm"
    },
    "href" : "https://api.spotify.com/v1/albums/0PaNSNyS5HIx2nY1unC7Hm",
    "id" : "0PaNSNyS5HIx2nY1unC7Hm",
    "images" : [ {
      "height" : 640,
      "url" : "https://i.scdn.co/image/39d75e631766611d823aa20170836df1fbaa5917",
      "width" : 640
    }, {
      "height" : 300,
      "url" : "https://i.scdn.co/image/734d45e88023b50c99057d660e8e0811298f73bb",
      "width" : 300
    }, {
      "height" : 64,
      "url" : "https://i.scdn.co/image/ffca3a98c110bce17898360aca43bb4965363c48",
      "width" : 64
    } ],
    "name" : "Shrapnel Record Presents: Shred Guitar Instrumentals",
    "release_date" : "2015-12-11",
    "release_date_precision" : "day",
    "type" : "album",
    "uri" : "spotify:album:0PaNSNyS5HIx2nY1unC7Hm"
  }, {
    "album_group" : "appears_on",
    "album_type" : "album",
    "artists" : [ {
      "external_urls" : {
        "spotify" : "https://open.spotify.com/artist/4UOlRVifrFdQHW9qu5ep8t"
      },
      "href" : "https://api.spotify.com/v1/artists/4UOlRVifrFdQHW9qu5ep8t",
      "id" : "4UOlRVifrFdQHW9qu5ep8t",
      "name" : "Tech N9ne Collabos",
      "type" : "artist",
      "uri" : "spotify:artist:4UOlRVifrFdQHW9qu5ep8t"
    } ],
    "available_markets" : [ "AD", "AR", "AT", "AU", "BE", "BG", "BO", "BR", "CA", "CH", "CL", "CO", "CR", "CY", "CZ", "DE", "DK", "DO", "EC", "EE", "ES", "FI", "FR", "GB", "GR", "GT", "HK", "HN", "HU", "ID", "IE", "IL", "IS", "IT", "JP", "LI", "LT", "LU", "LV", "MC", "MT", "MX", "MY", "NI", "NL", "NO", "NZ", "PA", "PE", "PH", "PL", "PT", "PY", "RO", "SE", "SG", "SK", "SV", "TH", "TR", "TW", "US", "UY", "VN", "ZA" ],
    "external_urls" : {
      "spotify" : "https://open.spotify.com/album/5Z6pmuZY9xZuRv8CxcwQtL"
    },
    "href" : "https://api.spotify.com/v1/albums/5Z6pmuZY9xZuRv8CxcwQtL",
    "id" : "5Z6pmuZY9xZuRv8CxcwQtL",
    "images" : [ {
      "height" : 640,
      "url" : "https://i.scdn.co/image/330b0e56377719f9e855ae13258a45112bdb784f",
      "width" : 640
    }, {
      "height" : 300,
      "url" : "https://i.scdn.co/image/2d925002f27fbfef92c29784529b986961ff862c",
      "width" : 300
    }, {
      "height" : 64,
      "url" : "https://i.scdn.co/image/6bc3479b14b2104b190f5e207d8b7bebfbda3fa8",
      "width" : 64
    } ],
    "name" : "Strangeulation (Deluxe Edition)",
    "release_date" : "2014-05-06",
    "release_date_precision" : "day",
    "type" : "album",
    "uri" : "spotify:album:5Z6pmuZY9xZuRv8CxcwQtL"
  }, {
    "album_group" : "appears_on",
    "album_type" : "compilation",
    "artists" : [ {
      "external_urls" : {
        "spotify" : "https://open.spotify.com/artist/0LyfQWJT6nXafLPZqxe9Of"
      },
      "href" : "https://api.spotify.com/v1/artists/0LyfQWJT6nXafLPZqxe9Of",
      "id" : "0LyfQWJT6nXafLPZqxe9Of",
      "name" : "Various Artists",
      "type" : "artist",
      "uri" : "spotify:artist:0LyfQWJT6nXafLPZqxe9Of"
    } ],
    "available_markets" : [ "AD", "AR", "AT", "AU", "BE", "BG", "BO", "BR", "CA", "CH", "CL", "CO", "CR", "CY", "CZ", "DE", "DK", "DO", "EC", "EE", "ES", "FI", "FR", "GB", "GR", "GT", "HK", "HN", "HU", "ID", "IE", "IL", "IS", "IT", "JP", "LI", "LT", "LU", "LV", "MC", "MT", "MX", "MY", "NI", "NL", "NO", "NZ", "PA", "PE", "PH", "PL", "PT", "PY", "RO", "SE", "SG", "SK", "SV", "TH", "TR", "TW", "US", "UY", "VN", "ZA" ],
    "external_urls" : {
      "spotify" : "https://open.spotify.com/album/0ytvU9uKzD8ekcjUkJybnj"
    },
    "href" : "https://api.spotify.com/v1/albums/0ytvU9uKzD8ekcjUkJybnj",
    "id" : "0ytvU9uKzD8ekcjUkJybnj",
    "images" : [ {
      "height" : 640,
      "url" : "https://i.scdn.co/image/6d3bbacd711b58c537d74448f0db4d1e4f8faacf",
      "width" : 640
    }, {
      "height" : 300,
      "url" : "https://i.scdn.co/image/f63f2bf2f3e9343e2a301b93e2d8e091e4a98a10",
      "width" : 300
    }, {
      "height" : 64,
      "url" : "https://i.scdn.co/image/0c00a14f1bcc7ac14a1d6f3a018c2870ddc5ccb2",
      "width" : 64
    } ],
    "name" : "The Lords Of Salem",
    "release_date" : "2013-01-01",
    "release_date_precision" : "day",
    "type" : "album",
    "uri" : "spotify:album:0ytvU9uKzD8ekcjUkJybnj"
  } ],
  "limit" : 10,
  "next" : "https://api.spotify.com/v1/artists/7mAqCk75DUBWgcC0sqhzwX/albums?offset=10&limit=10&include_groups=single,appears_on&market=FR",
  "offset" : 0,
  "previous" : null,
  "total" : 15
}